{
  "runs": [
    "RUN-104E8918513F",
    "RUN-11636BBF8171",
    "RUN-1212BF4DDBE2",
    "RUN-19B45DFD34C2",
    "RUN-20250917-002754"
  ],
  "offset": 0,
  "limit": 5,
  "total": 26,
  "next_offset": 5,
  "previous_offset": null
}
